{
  "embeds": [
    {
      "title": "📋 ==> De Vinci Junior",
      "color": "#d51256",
      "description": "DeVinci Junior est la Junior-Entreprise du pôle Léonard de Vinci. En regroupant les trois écoles d'expertises différentes, nous proposons des prestations diversifiées couvrant de nombreux besoins, que nous vendons à nos clients. L'ensemble de notre équipe met tout en œuvre pour assurer le bon déroulement de ces échanges.\n\nNotre but pour nos membres est d'aussi apporter une montée en compétences. Ce sont nos étudiants qui obtiennent les contrats, donc qui sont en contact direct avec les clients, et ce sont eux qui assurent le suivi de leur contrat. Ils travaillent en étroite collaboration avec les consultants. Les consultants sont aussi des étudiants, et ce sont eux qui réalisent les études. Les chefs de projets et les consultants sont rémunérés à hauteur de leur contrat.\n\nDeVinci Junior a donc un double enjeu : maximiser son chiffre d'affaire et fidéliser ses clients, mais aussi assurer une montée en compétences chez les étudiants. ",
      "category": "Business"
    },
    {
      "title": "💼 ==> DeVinci Partners",
      "color": "#ffffff",
      "description": "DeVinci Partners est l’une des associations professionnelles du pôle. Dans une ambiance d’association étudiante nous organisons tous les événements professionnels du pôle tels que les forums entreprises, alumnis et plein d’autres encore. Aussi, en contact permanent avec les entreprises et nos partenaires nous organisons des conférences, visites d’entreprise, ateliers pros et workshops. Plus qu’une association « pro », DeVinci Partners est une association faite par les étudiants et pour les étudiants. Nous sommes donc une bande de potes avant tout, ayant comme point commun l’envie de se professionnaliser tout en s’amusant. Ainsi, si tu souhaites mettre un pied dans le monde professionnel, être en contact direct avec les entreprises et développer ton réseau, DeVinci Partners est la solution !",
      "category": "Business"
    },
    {
      "title": "🧗🏻‍♂️ ==> LéoClimb",
      "color": "#ffffff",
      "description": "LeoClimb c’est quoi ? Tout d’abord c’est la meilleure asso du pole avec une ambiance incroyable. Nous sommes une asso d’escalade qui a pour but de rassembler les gens autour de l’escalade et de créer une vraie famille : on donne tout en séance de grimpe mais on oublie pas le plus important, la RÉCUPÉRATION, pour ça nous prenons des petites mousses dans la salle afin de rester bien hydrater ou des sorties japonais à volonté, Flam's ou pizza pour éviter les risques d'hypoglycémie. Comme tu as pu le comprendre LeoClimb c'est l'asso d'escalade  du pôle ou tu pourras te dépasser sur les murs mais c'est aussi une asso de chilleur qui sait comment récupérer après une grosse séance, si ces aspects te plaisent n'hésite pas à postuler pour nous rejoindre nous nous ferrons une joie de t'accueillir comme il se faut !!",
      "category": "Sport"
    },
    {
      "title": "🏐 ==> LéoVolley",
      "color": "#10602d",
      "description": "Léovolley PULV est l’association de Volley Ball du pôle Léonard de Vinci qui regroupe les amateurs de Volley. Ici, nous partageons une passion en passant des après-midis (séances d’entrainements) et tournois avec nos membres et pleins d’autres activités ! Nous avons des membres avec des niveaux très divers dans cette discipline.\nLa convivialité, l’humour et la bonne humeur sont nos maitre-mots ! Viens rencontrer des personnes des 3 écoles et pratiquer une activité sportive accessible à tous !\nCe n’est pas seulement le sport que nous partageons, c’est des moments forts, que ce soit au soleil ou de nuit, en venant tu rencontreras une nouvelle famille diverse et unie.\nPlus qu’un sport, le volley c’est un esprit d’équipe, du partage, une philosophie qui consiste seulement à vouloir venir passer du bon temps, sans prise de tête autour d’un activité sportive ouvertes à tou(te)s.\nPas besoin d’être un pro des attaques pour participer, il suffit juste d’avoir l’envie de découvrir cet état d’esprit ! Et si vraiment tu hésites encore on est très bon public et toujours d’humeur à soutenir ceux qui participent.\nSi tu aimes le volley ou que t’es curieux de découvrir ce sport, alors cette association est faite pour toi !",
      "category": "Sport"
    },
    {
      "title": "🤖 ==> DaVinciBot",
      "color": "#3b6ea2",
      "description": "DaVinciBot est une association de robotique étudiante. Fondée à l'origine par un groupe d'étudiants désireux de participer à la CDR (Coupe de France de Robotique), elle s'est développée pour devenir le club de tous les étudiants passionnés de robotique. Elle compte aujourd'hui plus de 70 étudiants, 3 projets principaux et beaucoup de rêves. Qu'il s'agisse de concevoir, de fabriquer ou de tester, le FabLab est l'endroit où tout devient réalité. Ne nous croyez pas sur parole, venez voir par vous-mêmes.",
      "category": "Technologies"
    },
    {
      "title": "🐇 ==> Vincillusion",
      "color": "#bc2326",
      "description": "Vincillusion est une association de magie ouverte à tous quelque soit le niveau. Nous nous intéressons principalement à la cartomagie (tours de cartes) et au mentalisme.",
      "category": "Art & Culture"
    },
    {
      "title": "🌟 ==> Étoile de Vinci",
      "color": "#dfbb5e",
      "description": "Fondée en septembre 2018, l’Étoile de Vinci est une association récente qui amène la culture football au sein du pôle !\\n\\nA travers nos événements selon plusieurs axes, tout le monde y trouve son compte que ce soit pour fouler les pelouses contre des étudiants d’autres écoles, supporter ton équipe favorite bien au chaud dans un bar ou tout simplement pour parler football avec de nombreux passionnés.\\n\\nAu programme également, un tournoi du pôle où tu peux te joindre à la compétition avec ton association, tes adversaires du dimanche ou même tes amis, une seule équipe ajoutera une étoile à son maillot !",
      "category": "Sport"
    },
    {
      "title": "🛥️ ==> HydroVinci",
      "color": "#4a6795",
      "description": "HydroVinci est une association composée d’élèves du Pôle Léonard de Vinci et fondée par des élèves de l’école d’ingénieur ESILV. Elle a pour but de rassembler des personnes voulant faire partie d’un projet de création et d’élaboration. En effet notre mission première est de construire de toute pièce deux bateaux électriques télécommandés pour participer à la compétition internationale « Hydrocontest ». Lors de cette compétition se déroulant généralement à Lausanne en Suisse, des écoles d’ingénieurs de tous les continents concourent durant une semaine d’épreuves au mois de septembre.\\n\\nNotre vie au sein de l’association ne se limite pas qu’à la création du bateau. En effet nous avons aussi besoin de personnes pour gérer tout l’aspect de communication ainsi que trouver des sponsors. Pour l’aspect technique, le dépassement de soi-même, l’esprit de compétition et dans un but de responsabilité écologique citoyenne, HydroVinci souhaite s’investir dans ce nouveau challenge et a besoin d’un investissement sérieux et régulier d’étudiants.\\n\\nVenez découvrir la nouvelle association HydroVinci et initiez les innovations de demain dans le domaine de l’efficience énergétique.",
      "category": "Technologies"
    },
    {
      "title": "🐾 ==> Vinci Squad",
      "color": "#034a75",
      "description": "VinciSquad c’est le club école de l’EMLV, nous sommes rattachés au BDE mais nous nous occupons essentiellement des étudiants de l’EMLV. A VinciSquad, on soutient trois valeurs : accueillir, accompagner et intégrer tous les élèves de l’EMLV, qu’ils soient anciens ou nouveaux ! Nous sommes une grande famille qui va t’aider et être présente pour toi pendant tout ton cursus. Alors si toi aussi tu veux faire partie de cette famille, n’hésite pas à remplir le formulaire ci-dessous 😉",
      "category": "BDE & Clubs écoles"
    },
    {
      "title": "🍷 ==> la Cave De Vinci",
      "color": "#8c1616",
      "description": "La Cave est l'asso d'œnologie du PULV. Notre objectif est de découvrir le terroir français principalement à travers le vin. Un WE de cohésion et de nombreuses dégustations sont prévus dans l'année pour vivre de bons moments tous ensemble et élargir notre culture.",
      "category": "Art & Culture"
    },
    {
      "title": "💛 ==> Veni Vidi de Vinci",
      "color": "#ffbe00",
      "description": "Veni Vidi de Vinci, surnommé 3V, est le club école de l’ESILV qui a pour but de prendre en charge le parrainage des nouveaux arrivants à l’ESILV, ainsi que leurs intégrations au sein de leur propre promotion, en développement la cohésion et le partage entre les étudiants.\n3V c’est également un mélange de bonne humeur, humour (bon pas tous), amitié et de jaune bien évidemment.",
      "category": "BDE & Clubs écoles"
    },
    {
      "title": "🥇 ==> Vinci Racing Team",
      "color": "#ffffff",
      "description": "Vinci Racing Team est l’association de karting et de sport automobile du Pôle Léonard de Vinci où sont réunis des passionnés de ces disciplines.\\n\\nLes membres font des sessions de karting ensemble, participent à des courses, et en organisent pour eux comme pour le pôle.",
      "category": "Sport"
    },
    {
      "title": "🧰 ==> DeVinci FabLab",
      "color": "#cdcdcd",
      "description": "Le DeVinci FabLab est une association de makers regroupant des étudiants de différentes volontés et horizons visant à faire vivre le FabLab en organisant des événements, des projets, des formations techniques ou soft skills.\nNos objectifs sont de partager notre passion avec les membres afin qu'ils deviennent des makers, ainsi que d'aider les étudiants des trois écoles (ESILV, IIM, EMLV) dans leurs projets annuels et personnels.\nÊtre maker, c'est simplement avoir l'envie de faire quelque chose de ses mains : cela peut être un projet, l'organisation d'un événement, ou une réalisation technique.",
      "category": "Technologies"
    },
    {
      "title": "⛵ ==> LéoVoile",
      "color": "#5dade2",
      "description": "Léovoile est depuis 2001 l'association de voile du Pôle Léonard de Vinci dont nous défendons chaque année les couleurs ainsi que celles de nos partenaires sur les mers, notamment lors de la Course Croisière Edhec (CCE).\nPour cela, nos 80 membres actifs s’investissent annuellement dans la recherche de partenaires et de financement. Aussi, l'organisation de nombreux événements tout au long de l’année permet à chacun de contribuer à la réussite de nos objectifs : nuit des associations, participation aux événements Mécénat Chirurgie Cardiaque, petits-déjeuners…\nBien plus qu'une association, Léovoile c'est avant tout une famille !",
      "category": "Sport"
    },
    {
      "title": "🎨 ==> Leon'Art",
      "color": "#ffffff",
      "description": "Leon'Art est l'association de dessin, peinture et arts graphiques du Pôle Léonard de Vinci.\n\nChaque jeudi on organise des Ateliers où l'on se retrouve pour dessiner dans une atmosphère chill. Nous aidons aussi nos membres à progresser s'ils le souhaitent en leur donnant des cours par tutorat ou avec un prof d'art.\nNous possédons une grande quantité de matériel, des promarkers aux grandes tablettes graphiques en passant par les bombes graffiti, tu trouveras forcément ton bonheur.\nAfin que les membres puissent faire connaissance, nous organisons des Week-end de Cohésion mais aussi des sorties et soirées en rapport avec l'art ou non.\n\nAlors si tu aimes l'art et que tu veux nous rejoindre, n'hésite plus et contacte nous !",
      "category": "Art & Culture"
    },
    {
      "title": "☀️ ==> LéoSphère",
      "color": "#fae821",
      "description": "LéoSphère est l'association de pétanque du Pôle Léonard de Vinci promouvant  l'esprit de famille, la bonne humeur et la culture du sud.\n\nTout au long de l’année on se retrouve autour d’événements croustillants, et chaque année on organise un tournoi de pétanque “TOPBOULE” pour toutes les personnes du Pôle. Une rencontre sportive, amicale et intense.\n\n\nClaquettes chaussettes n’ont aucun secret pour toi ? T'aimes l'ambiance camping ? T'es fier de porter ton bob cochonou ? T'aimes les boules, le mélodieux chant des cigales, les douces caresses du soleil et l'apéro ?\n\nAlors tu trouveras ta place dans cette grande famille !",
      "category": "Sport"
    },
    {
      "title": "🏆 ==> LDV Esport",
      "color": "#ff5064",
      "description": "Nous sommes une association d'esport universitaire, c'est-à-dire de jeu vidéo compétitif. Etablis depuis 2016, nous sommes présents sur la plupart des jeux compétitifs dans le monde, et avons pour ambition de nous inscrire comme la meilleure équipe étudiante d'Île-de-France. Doubles champions de France universitaires sur League of Legends, et vainqueurs de nombreux autres tournois, nous espérons continuer de compléter notre palmarès, et ainsi peut-être nous afficher comme un acteur important dans l'esport français, que ce soit a notre niveau, ou bien en tant que tremplin pour nos joueurs et notre staff dans le milieu professionnel.\nNous souhaitons également pousser en avant de nombreuses valeurs et bonnes actions à l'aide de notre image et de nos évènements, que ce soit pour des tournois inter-associatifs, des journées/semaines de sensibilisation ou des évents caritatifs, LDV Esport veut participer à mettre le gaming au service de grandes et belles causes.",
      "category": "Multimédia"
    },
    {
      "title": "🏎️ ==> Vinci Eco Drive",
      "color": "#de1f32",
      "description": "Vinci Eco Drive est l’association automobile du Pôle Universitaire Léonard de Vinci. Elle regroupe plus d’une soixantaine d’étudiants ingénieurs de l’ESILV, mais aussi de l’IIM et de l’EMLV.\\n\\nL’objectif de l’association est la conception et la fabrication de deux véhicules électriques :\\n\\n- Un prototype d’efficience (PE), une voiture aérodynamique à faible consommation énergétique ayant pour but de participer à des compétitions d’efficience comme le Shell Eco Marathon ou l’Educ Eco. Le record actuel de l’association est de 3731km/L équivalent SP95 et a été établi lors du Shell Eco Marathon 2019 à Londres. Pour l’année 2019/2020, nous allons débuter la fabrication de notre nouvelle voiture : l’E-PULV Vision X, et continuer à améliorer notre voiture actuelle.\\n\\n- Une Formula Student (FS), un véhicule basé sur la Formule 1, dont l’objectif est centré sur la rapidité, l’accélération et l’agilité. Peu connue en France, la Formula Student est une compétition internationale qui met en compétition plus de 150 universités du monde entier. Elle est reconnue par de grandes entreprises du secteur comme l’une des meilleures opportunités d’innover en compétition automobile aujourd’hui. Pour l’année 2019/2020, nous allons continuer la conception de la FS en travaillant sous forme de bureau d’étude et probablement débuter la fabrication.\\n\\nGrâce à tous ces projets portés par les étudiants du PULV, nous mettons en pratique les connaissances que nous avons acquises en mécanique, conception de système électroniques mais aussi en gestion de projet.\\n\\nSi vous souhaitez nous rejoindre ou en savoir plus, n’hésitez pas à nous contacter !",
      "category": "Technologies"
    },
    {
      "title": "🦈 ==> LéoSquale",
      "color": "#132348",
      "description": "Toute fraîche, Léosquale n’est pas l’association de tous les médaillés de la natation, c’est avant tout un lieu ou  tu peux rencontrer d’autres étudiants qui partagent, comme toi, l’amour des sports aquatiques.\\n\\nAlors pour briller en société, pas besoin d’être le nouveau Michael Phelps, ramène juste un maillot et viens te baigner.",
      "category": "Sport"
    },
    {
      "title": "🎭 ==> Comédia da Vinci",
      "color": "#b50920",
      "description": "Comedia, c'est l'asso de théâtre du pôle ! Des séances d'impro pour tous chaque semaine, et pour ceux qui veulent, on prépare une pièce pendant l'année, en ponctuant tout ça de fun et de bières 😉\nDonc quelque soit ton niveau, si t'es motivé n'hésite pas ! ",
      "category": "Art & Culture"
    },
    {
      "title": "🎓 ==> LéoLearning",
      "color": "#c08e22",
      "description": "Nous sommes l'association de tutorat du Pôle ! Notre mission ? Aider les étudiants des 3 écoles à réussir dans leurs études 🎓\n\nTu as des facilités dans certaines matières ? Rejoins-nous !\n\nSi ton truc c'est plus l'organisation, la communication ou l'animation de la Vie Asso, on a aussi quelque chose pour toi 😏",
      "category": "Humanitaire, Citoyen et Engagement"
    },
    {
      "title": "🏀 ==> LéoBasket",
      "color": "#ff0000",
      "description": "LeoBasket est une association sportive regroupant des personnes ayant pour centre d’intérêt le basket-ball, mais également la musique, la mode, l’ambiance, etc. LeoBasket est avant tout une grande famille, où la diversité et le respect d’autrui sont de mise ! Alors si tu aimes le Basket et « La Culture », peu importe ton niveau, viens t’ambiancer chez nous ! ",
      "category": "Sport"
    },
    {
      "title": "🏈 ==> Eagles",
      "color": "#214f8a",
      "description": "Eagles est une association sportive dans laquelle nous pratiquons le football américain. Nous sommes une équipe universitaire, la plus titrée de France (quatre fois championne de France). Fan de notre sport, nous voulons le faire découvrir au plus grand nombre de personnes, pour partager notre passion. Expérimenté ou non, cette association est faite pour tout le monde. En tant qu'expérimenté, vous prendrez du plaisir à jouer à nos côtés, et vous en prendrez tout autant pour votre initiation de ce magnifique sport aux côtés de nos passionnés qui vous transmettront leur amour du Foot Us.\nCette association est ouverte à tous ; sportif ou non, vous trouverez votre place. Une seule chose est demandée : être motivé.\nPour cette année, notre objectif majeur est la cinquième étoile sur le maillot. ",
      "category": "Sport"
    },
    {
      "title": "📸 ==> Poletech",
      "color": "#507ea6",
      "description": "Spécialisée dans la communication numérique (photographie, vidéo, eMagazine avec Interpôle, etc.), Poletech assure la couverture médiatique des activités associatives. Poletech immortalise tout…. Notre association permet à chaque membre de partager ses connaissances, ses passions et cela nous aide à grandir et à innover.\\n\\nPoletech propose aussi ses services aux entreprises, associations et étudiants : shootings photos, trombinoscopes, défis, clips, couverture photo…Forte de son expérience, poletech évolue au cœur d’un environnement jeune et digital avec une forte présence sur les réseaux sociaux, terrain privilégié des étudiants.",
      "category": "Multimédia"
    },
    {
      "title": "🏃🏾 ==> Leo Running Club",
      "color": "#2570cd",
      "description": "De l’addict de la course au simple débutant, nous sommes là pour te motiver et te challenger.\\nSi tu es passionné(e) par la course, que tu cherches à améliorer ta technique, l’esthétique de ta foulée, faire descendre ton chrono ou tout simplement courir pour le plaisir, bienvenue ! L’association propose des entraînements à tous niveaux ainsi que la participation à différentes grandes courses parisiennes : Mud Day, Color Run, Nike’s Women.\\n\\nNous sommes avant tout une grande famille associative qui se réunit sous le thème de la course pour se retrouver aussi bien pour courir, se détendre autour d’un verre (après l’effort le réconfort) ou organiser des évènements sportifs à plus ou moins grande échelle. LRC family te permettra de t’épanouir et d’atteindre tes objectifs. Repousser les limites est pour nous primordial !",
      "category": "Sport"
    },
    {
      "title": "🎀 ==> LeoPompom",
      "color": "#de0a09",
      "description": "Plus qu’une association, une famille : LeoPompom, c'est THE asso à l'américaine.\n\nL'équipe pratique le cheerleading au sein du pôle dans le but de représenter les 3 écoles lors d'évènements (journée d'intégration, soirées BDE, journées à thème, courses caritatives...) ou lors de compétitions universitaires (TOSS, CDMGE, FFSU...). Mettre le feu à la scène, ça nous connait et pas qu'un peu.\n\nOn repousse nos limites ensemble, dans la bonne ambiance, la bienveillance et toujours avec le smile !\n\nTu rêves d'être pompom-girl ou cheerleader, tu cherches à te surpasser et tu adores les sports d'équipe ainsi que la bonne ambiance ? Alors LeoPompom est fait pour toi !",
      "category": "Sport"
    },
    {
      "title": "🎲 ==> Games of Devinci",
      "color": "#460091",
      "description": "Games of Devinci est une association de divertissement et de découverte fondée sur l’imaginaire et  articulé autour de six grands axes : Jeux de Rôle (Tables et rassemblements), Jeux de Société, Jeux de Cartes à Collectionner (confrontations, échanges), Culture Geek (culture otaku), Grandeur Nature/Airsoft (Rencontres en plein air, fabrication d’armes, sport associatif) et Jeux Vidéo (Rencontres et confrontations).\\n\\nNotre principal objectif est de faire découvrir, partager tous ensemble, faire de nouvelles expériences, faire vivre votre passion autour d’activités fédératrices.",
      "category": "Art & Culture"
    },
    {
      "title": "✨ ==> Vinci Investments",
      "color": "#f4bc3c",
      "description": "Vinci Investments est l’association de finance du Pôle Léonard de Vinci. Elle regroupe environ 60 étudiants des trois écoles du Pôle (ESILV, EMLV, IIM). Notre but est de fournir une formation complémentaire de qualité à nos membres qui s’intéressent de près ou de loin à la finance. Nous souhaitons faire découvrir cet univers et le rendre plus accessible.\\n\\nChez Vinci Investments, nous défendons une identité forte par le partage de valeurs communes : rigueur, esprit d’équipe et dépassement de soi.",
      "category": "Business"
    },
    {
      "title": "🐵 ==> LéoStunt",
      "color": "#480001",
      "description": "LeoStunt c'est une asso d'acrobatie, de gym, de parkour ... un peu tout ce que tu veux quoi.\nOn est une grande famille qui se retrouve au dojo pour s'entraîner et faire des jeux chaque semaine.\nAvec notre asso tu peux valider ton sport obligatoire en choisissant le sport gym au sol.",
      "category": "Sport"
    },
    {
      "title": "🥊 ==> AMMA",
      "color": "#f0f3f4",
      "description": "Amma est l'association de sport de combat du Pôle Léonard De Vinci. Notre but est de promouvoir les arts martiaux et leurs valeurs. Nous accueillons environ une centaine de membres du débutant au champion. Notre but est de tous progresser dans diverses disciplines: la Boxe Thaï, MMA, Boxe Anglaise. Amma n'est pas seulement une association, nous sommes une très grande famille, nous prônons l'entraide, le respect, la diversité culturelle et la joie de vivre. Tous les ans nous travaillons pour faire grandir cette grande famille à travers des événements, des combats voire même des shows. ",
      "category": "Sport"
    },
    {
      "title": "💻 ==> DigiTeam",
      "color": "#17b4e9",
      "description": " Créée en 2017 , DigiTeam regroupe des passionnés d’informatique, de numérique et de digital. Ses membres vous accueilleront dans leur local en L101-A, juste à côté du Service Informatique (SI). Mais vous pourrez aussi les croiser sur les différents groupes de Yammer, répondant à vos questions aux côtés du SI !\\n\\nEn effet, en accord avec ce dernier, DigiTeam intervient auprès des personnes du Pôle, étudiants comme administration, afin de leur faciliter l’entrée dans le digital et le numérique. En l’espace de deux mois, l’association comptait déjà plus de 100h de dépannages en tous genres. Que ce soit pour des questions d’ordre générique sur l’emplacement des imprimantes, pour installer 3DS sur des macs, ou parce que votre ordinateur a décidé qu’il vivrait bien mieux sa vie en vous affichant sans arrêt son « écran bleu de la mort », n’hésitez pas à faire appel à DigiTeam !\\nEt si vous voulez rejoindre l’association pour faire profiter les autres de vos connaissances, contactez-nous àdigiteam@devinci.fr !",
      "category": "Technologies"
    },
    {
      "title": "🐺 ==> IIMPACT",
      "color": "#5e5e5e",
      "description": "IIMPACT, c’est  l’association d’intégration de l’IIM, qui est chargée de t’accompagner au sein de tes années à l’école. Que ce soit durant ta semaine d’intégration ou au cours de l’année avec les cours ou les soirées, la meute est sur le coup pour te faire profiter un maximum de la vie étudiante et te faire réussir ton parcours.",
      "category": "BDE & Clubs écoles"
    },
    {
      "title": "✈️ ==> LéoFly",
      "color": "#374472",
      "description": "LéoFly est l'association d'aéronautique et d'aérospatial du Pôle Léonard de Vinci. Chez nous, tu vas pouvoir rencontrer des étudiants passionés par l'aéronautique, l'aérospatial (et bien plus encore), et qui ont tous la joie de vivre ! Tu pourras prendre part à nos projets techniques comme la réalisation d'une fusée étudiante, d'un télé-suiveur, d'un avion de modélisme et d'un tas d'autres projets. Nous organisons également de nombreux évènements : visites de musées et de salons, visites d'entreprises et de laboratoires, etc... Tu pourras discuter avec les membres lors des différents afterworks qui sont sacrés chez LéoFly.\n\nAujourd'hui, on compte plus de 130 LéoFlyens, et l'association ne cesse de s'agrandir. Alors laisse toi guider par l'aviateur qui est en toi et rejoins-nous !",
      "category": "Technologies"
    },
    {
      "title": "🃏 ==> DaVinci Sharks",
      "color": "#8a0808",
      "description": "DaVinci Sharks est l'association de poker du pôle Léonard de Vinci. Bonne ambiance, activité, passion, sorties, vous trouverez ici tout ce dont vous avez besoin pour profiter au maximum de cette nouvelle année au Pôle.",
      "category": "Art & Culture"
    },
    {
      "title": "👐🏻 ==> ADA - Aider Donner Agir",
      "color": "#9e3b57",
      "description": "ADA, c'est l'association humanitaire du pôle. Nous intervenons dans 4 secteurs de l'humanitaire ; l'enfance, la précarité, le handicap et la maladie. Que ce soit en participant à la distribution de repas, en organisant des maraudes, ou bien en sensibilisant les gens à de nombreuses causes, nos modes d'actions sont très diversifiés ce qui nous permet d'apporter une aide au plus grand nombre !",
      "category": "Humanitaire, Citoyen et Engagement"
    },
    {
      "title": "🎮 ==> Leo indie games",
      "color": "#000077",
      "description": "Nous sommes une association de développement de jeux vidéo du PULV. Nous nous voyons comme une communauté diversifiée ayant pour but de rendre accessible le développement de jeux vidéos pour permettre une meilleure compréhension de l'une des plus grosses industries du monde et de briser les clichés liés aux jeux vidéos et leurs consommateurs.  Parmi nos activités nous participons à des GameJams afin de travailler en petits groupes pour concevoir des petits jeux indé à l’aide de moteur de jeu comme Unity, nous aimons aussi nous retrouver entre nous que ce soit en distanciel, présentiel ou hybride dans des créneaux de la semaine pour se retrouver dans un cadre studieux ou non. L’association touche donc à toutes les parties du développement de jeux vidéos passant évidemment par la programmation mais surtout aussi au Game Design, à la 3D, aux arts 2D et au Sound Design.",
      "category": "Multimédia"
    },
    {
      "title": "🥞 ==> LéoCook",
      "color": "#cd1617",
      "description": "Le plus important pour nous : partager le plaisir de la bonne table et la découverte de nouveaux produits ! Nous proposons aux étudiants de découvrir les cuisines du monde en organisant divers événements culinaires tout au long de l’année : petits-déjeuners, buffets, journées thématiques…\\n\\n\\nLes multiples talents culinaires de Léo Cook associent la créativité et la minutie des chefs étoilés à l’efficacité légendaire du kebab du coin. Évoluant dans un monde de goût, portés par la beauté surprenante de la chimie culinaire, ils n’ont qu’un seul objectif : le ravissement des papilles.",
      "category": "Art & Culture"
    },
    {
      "title": "🏉 ==> LéoRugby",
      "color": "#af1917",
      "description": "Association de rugby du Pôle Léonard de Vinci, LéoRugby regroupe tous les passionnés de ce sport et tous ceux qui veulent participer au côté associatif. Léorugby.\\n\\nElle joue participe au championnat universitaire à XV et à VII ainsi qu’aux Ovalies en mai. Elle a lancé le tournoi Avenir (tournoi réunissant les 7 écoles d’ingénieur du Concours Avenir) et gagné  la première édition en 2017.\\n\\nMais  LéoRugby existe aussi à travers d’autres événements comme le calendrier des dieux du Pôle, la vente de places à tarifs préférentiels et ses fameux Afterworks.",
      "category": "Sport"
    },
    {
      "title": "👑 ==> Léo King's Walker",
      "color": "#000000",
      "description": "Leo King's Walker est une association de danse qui regroupe des danseurs de tous les styles. On crée des chorégraphies structurées pour ceux qui ont envie de découvrir de nouveaux styles ou de se perfectionner à travers des freestyles. Le respect, la motivation et l'ouverture d'esprit sont les valeurs de l'asso. Les LKW vont te faire danser et te faire kiffer.",
      "category": "Sport"
    },
    {
      "title": "💪 ==> LéoWorkout",
      "color": "#eed9b6",
      "description": "L’association permet aux élèves du pôle d’échanger et partager entre eux leur expérience concernant la musculation, les différents type d’entrainements (street workout/machines), et surtout partager cette passion commune qu’est le sport et le dépassement de soi.",
      "category": "Sport"
    },
    {
      "title": "🔥 ==> LeoSurvival",
      "color": "#ffffff",
      "description": "LéoSurvival est un club associatif du Pôle Universitaire Léonard de Vinci. Le but de l’association est de permettre aux étudiants du pôle de se retrouver autour de passions communes tel que le sport et la nature. Tout au long de l’année, LéoSurvival a pour souhait de développer la cohésion, l’esprit d’équipe ses membres et représenter fièrement le pôle.\n\nAu-delà de l’aspect sportif, nous sommes avant tout un groupe d’étudiants qui aime se retrouver pour passer des moments ensemble (afterworks, soirées, urbex, week-end en forêt et j’en passe). ",
      "category": "Sport"
    },
    {
      "title": "⛷️ ==> Slide Session",
      "color": "#4169e1",
      "description": "Slide Session est depuis 22 ans l’association de ski du Pôle Léonard de Vinci 💛❄️💙\n\nNous organisons chaque année le voyage au ski pour les étudiants du pôle et nous donnons la possibilité à nos membres de participer à la compétition mondiale de ski étudiante : Altigliss 🍻⛷🏆!!!\n\nAvec nous, tu auras au programme de nombreux événements internes, des soirées, des bars, un before ski et on en passe 😏 mais surtout, tu rejoindrais la grande famille Slide Session ❤️\n\nQue tu sois skieur pro ou que tu préfères bronzer au bar d’altitude, viens développer ton niveau de descente chez nous ! 🏂🍺\n\nSki you very soon 💙💛",
      "category": "Sport"
    },
    {
      "title": "🎵 ==> Musique Mix",
      "color": "#a816c6",
      "description": "Musique Mix est une association dédiée à la musique 🎼 Vous pourrez y prendre des cours ou bien en donner ! Nous avons toute sorte d'instrument allant de la guitare au violon en passant par la batterie, le piano ou la basse. Tous les midi vous pourrez participer aux jams (séance d'impro) et vous pouvez également réserver le studio pour pouvoir répéter, avec ton groupe ou en solo. Bien sur on organise des afterworks et des moments de cohésion 🍻",
      "category": "Art & Culture"
    },
    {
      "title": "🌍 ==> DeVinci Durable",
      "color": "#42c281",
      "description": "DeVinci Durable c’est l’association étudiante du Pôle Léonard de Vinci dédiée au Développement Durable.\nNotre objectif ? Promouvoir un mode de vie plus eco responsable et sensibiliser les étudiants de l’EMLV, l’ESILV et l’IIM aux problématiques du dévelopement durable.\n\nRejoins DevDu pour vivre de belles aventures !",
      "category": "Humanitaire, Citoyen et Engagement"
    },
    {
      "title": "🦦 ==> Léo & Co",
      "color": "#676785",
      "description": "Léo & Co (Léonard De Vinci et Compagnie) est un tout nouveau club associatif créé pour te permettre, étudiant du Pôle, de participer à la défense de la cause animale et plus particulièrement lutter contre l’abandon et la maltraitance des animaux de compagnies.\\n\\nLe but de notre club est de venir en aide aux différents refuges et associations de défense animale et de sensibiliser les étudiants et plus largement notre Pôle à l’abandon ainsi qu’à la maltraitance animale.",
      "category": "Humanitaire, Citoyen et Engagement"
    },
    {
      "title": "🚣 ==> ADV - Aviron De Vinci",
      "color": "#000001",
      "description": "Nous sommes l'association étudiante d'aviron du Pôle Léonard De Vinci. 🚣‍♂️🚣 \n\nAssociation sportive, on se regroupe tous les jeudis après-midi pour ramer sur la Seine (et pas Dans la Seine 😉)\n\nDans l'asso, il y a des étudiants de tous les niveaux mais on a tout de même une partie de ce groupe en sport FFSU qui concourt à des compétitions universitaires. Notre but est que tout le groupe progresse ensemble, tout étudiant motivé peut aussi très vite participer à des compétitions en rejoignant le groupe FFSU.\n\nOn fait du sport oui, mais on aime aussi se regrouper au moins tous les mois pour un afterwork dans la salle du club. Planche de charcuterie, terrasse sur Seine, what'else?! 🥪🧃🎉 \n\nUn grand projet de l'année en plus des déplacements en compétitions sont les championnats de France Universitaire 2022 en Corèze!\nAussi, nous sommes en train d'organiser une course d'aviron inter-école, à l'anglaise, made by Aviron De Vinci 👊👊\n\nVenez apprendre à ramer, ça pourra toujours vous servir! ☝️",
      "category": "Sport"
    },
    {
      "title": "🎤 ==> La Joute de Vinci",
      "color": "#156149",
      "description": "L’association La Joute De Vinci est l’association de Débats et Conférences du PULV.\\n\\nTout au long de l’année, l’association organise des conférences avec différents  intervenants sur des sujets très variés.\\n\\nL’association comprend une partie débat qui a pour but de participer au championnat de France de Débat (Concours d’éloquence) organisé par la FFD (Fédération Francophone de Débat) et de développer l’art oratoire des étudiants.",
      "category": "Art & Culture"
    },
    {
      "title": "💫 ==> BDE Nova",
      "color": "#5e408e",
      "description": "Le BDE NOVA est présent cette année afin de vous faire découvrir des planètes encore inexplorées !\\n\\nNous irons toujours plus loin pour que ce voyage spatial se passe dans les meilleures conditions pour nos passagers.\\n\\nDes projets encore jamais vus au pôle sont au programme !\\n\\nAlors prenez place, mettez votre ceinture et venez faire un tour avec nous !\\n\\nOver.",
      "category": "BDE & Clubs écoles"
    },
    {
      "title": "🎙️ ==> TEDxPULV",
      "color": "#e62b1e",
      "description": "L’association TEDxPULV, c’est d’abord une conviction. La conviction qu’une idée, aussi simple soit-elle, mérite d’être partagée au plus grand nombre. Ainsi, chaque année, nous organisons une conférence au format TED dans le pôle. Des intervenants talentueux et des personnalités fortes viennent partager leur expérience et leur savoir.",
      "category": "Art & Culture"
    },
    {
      "title": "📝 ==> La Plume De Vinci",
      "color": "#38653e",
      "description": "De l’écriture de fiction à la rédaction journalistique en passant par la transmission d’une culture littéraire, La Plume De Vinci est un nouveau club qui a pour objectif d’éveiller et de travailler la sensibilité littéraire et rédactionnelle de ses membres.",
      "category": "Art & Culture"
    },
    {
      "title": "🗽 ==> ESN DeVinci",
      "color": "#00aaee",
      "description": "ESN De Vinci est une association qui s’occupe de l’accueil et de l’intégration des étudiants internationaux au pôle universitaire Léonard de Vinci.\\n\\nSon but est de rendre la scolarité de ces étudiants agréable et de les ouvrir davantage à la culture française à travers divers événements tels que des afterworks, des musées, des restaurants ou encore des visites dans, et en dehors de Paris.",
      "category": "Humanitaire, Citoyen et Engagement"
    },
    {
      "title": "⚽ ==> LéoFive",
      "color": "#fbba5c",
      "description": "Une association de five (foot à 5vs5) sur terrain synthétique",
      "category": "Sport"
    },
    {
      "title": "🍻 ==> Léoublon",
      "color": "#14571c",
      "description": "Association du pôle Léonard de Vinci regroupant les étudiants des 3 écoles autour d'un même centre d'intérêt : le brassage de bière. Très soudée par de nombreuses sorties, voyages et évènements tout au long de l'année, on vous promet des moments inoubliables.",
      "category": "Art & Culture"
    },
    {
      "title": "❌ ==> La 404 Devinci",
      "color": "#f5a11a",
      "description": "La 404, c'est l'association de développement web du Pôle ! Elle a pour vocation de réunir les étudiants intéressés par le développement web et ses technologies et de faire découvrir aux étudiants en général le domaine du développement web, aujourd’hui trop peu connu.",
      "category": "Technologies"
    },
    {
      "title": "🚙 ==> DeVinciTrip",
      "color": "#0e4968",
      "description": "Association de voyage et de culture du pôle Léonard De Vinci.\n\nNouveaux au pôle, nous sommes désireux d’enrichir la vie associative de celui-ci avec notre association. DeVinciTrip porte l’ambition d’apporter à l’ensemble du campus une ouverture sur la culture, le patrimoine français et européen.\n\nChaque année se clôture par une excursion associative d'une semaine dans un territoire de France ou d'Europe ! ",
      "category": "Humanitaire, Citoyen et Engagement"
    },
    {
      "title": "💲 ==> KRYPTOSPHERE",
      "color": "#21325b",
      "description": "KRYPTOSPHERE est la première association étudiante européenne spécialisée dans les blockchains et les cryptomonnaies. Créé en 2017, elle est actuellement composée de plusieurs antennes réparties sur 14 écoles de commerce et d'ingénieur partout en France (EM Lyon, ESSEC, INSA Lyon, le PULV …).\n\nL’association KRYPTOSPHERE a pour but de former théoriquement et techniquement les étudiants via des formations, des Kryptopapers, des conférences, des hackathons, des projets nationaux ou internes à l’antenne.",
      "category": "Business"
    },
    {
      "title": "☕ ==> Club Entrepreneurs",
      "color": "#162345",
      "description": "Créer ton entreprise, développer ta startup, partir à l’aventure… Le Club Entrepreneurs est l’association d’entrepreneuriat du Pôle Léonard de Vinci. En lien avec Devinci Startup, nous regroupons les étudiants des 3 écoles qui ont pour vocation de se lancer dans la création d’entreprise.\n\nSon objectif : développer l’entrepreneuriat au Pôle Léonard de Vinci.\n\nIntégrer le club permet de ne pas rester isolé et d’entreprendre dans un cadre bienveillant d’entraide. Les membres du club se regroupent de façon hebdomadaire pour échanger sur les problématiques auxquelles ils font face.\n\nQue tu sois entrepreneur émérite ou simplement intéressé par l’univers, tu seras immergé dans l’écosystème bouillonnant des étudiants qui font tout pour créer leur futur job.\n\nSi la raison d’être du club te parle, n’attends pas et postule dès aujourd’hui !",
      "category": "Business"
    },
    {
      "title": "⚓ ==> DaVinciCode",
      "color": "#1dc1ca",
      "description": "DaVinciCode est l’association de cybersécurité et hacking du Pôle Léonard de Vinci. Elle a pour but de faire rayonner la cybersécurité au sein et à l’extérieur du pôle, tout en offrant à ses membres un partage des connaissances et une montée en compétences.\nMais DaVinciCode, c’est aussi une équipe française de compétitions de cybersécurité (ou CTF pour Capture The Flag) classée nationalement. Nous prenons part constamment à des CTF où nous représentons le pôle internationalement lors de ces concours individuels ou collectifs.\nNous avons pour projet de développer la cybersécurité au sein du pôle en coopération avec la majeure IOS, en proposant plusieurs projets pédagogiques annuellement dont un fixe : le DaVinciCTF, une compétition made in ESILV. D’autres projets seront développés tout au long des années, allant du développement de style DevSecOps, aux recherches de vulnérabilités et pentest, en passant par le hacking IOT.\nL’association a également pour vocation de partager et apprendre lors de master class ou wargames (espace d’entrainement pour les challenges de cybersécurité) sur l’ensemble des thèmes de la cybersécurité.\nSi vous souhaitez nous rejoindre ou en savoir plus, n’hésitez pas à nous contacter !",
      "category": "Technologies"
    }
  ]
}